{
  "project_info": {
    "project_number": "167715870895",
    "firebase_url": "https://expenseman-f302a.firebaseio.com",
    "project_id": "expenseman-f302a",
    "storage_bucket": "expenseman-f302a.appspot.com"
  },
  "client": [
    {
      "client_info": {
        "mobilesdk_app_id": "1:167715870895:android:a3f1e50e7b35598a8b1c5a",
        "android_client_info": {
          "package_name": "com.ajaybhatia.expenseman"
        }
      },
      "oauth_client": [
        {
          "client_id": "167715870895-3fnopjltmjthlsge2ossfd3k5frqf35u.apps.googleusercontent.com",
          "client_type": 3
        }
      ],
      "api_key": [
        {
          "current_key": "AIzaSyC916Bmn8obkPxVRMrkkq94Ww4fHNzuS5Y"
        }
      ],
      "services": {
        "appinvite_service": {
          "other_platform_oauth_client": [
            {
              "client_id": "167715870895-3fnopjltmjthlsge2ossfd3k5frqf35u.apps.googleusercontent.com",
              "client_type": 3
            }
          ]
        }
      }
    }
  ],
  "configuration_version": "1"
}